// =============================================================================
// Scilab ( https://www.scilab.org/ ) - This file is part of Scilab
// Copyright (C) 2010 - DIGITEO - Clément DAVID
//
//  This file is distributed under the same license as the Scilab package.
// =============================================================================
// <-- XCOS TEST -->
//
// <-- Non-regression test for bug 4898 -->
//
// <-- GitLab URL -->
// https://gitlab.com/scilab/scilab/-/issues/4898
//
// <-- Short Description -->
// Block scifunc_block_m stored some list in model.ipar instead of model.opar.
// Check for a new block instantiation
scs_m = scifunc_block_m("define", [], []);
if scs_m.model.ipar <> 0 then bugmes();quit;end;
if scs_m.model.opar <> list() then bugmes();quit;end;
// Check for simulation for an old Xcos instance
status = importXcosDiagram(SCI + "/modules/xcos/tests/nonreg_tests/bug_4898.zcos");
if status <> %t then bugmes();quit;end;
scicos_simulate(scs_m);
block = [];
for o = scs_m.objs
    if typeof(o) == "Block" & o.gui == "scifunc_block_m" then
        block = o;
        break;
    end
end
if typeof(block) <> "Block" then bugmes();quit;end;
if isempty(block.model.opar) <> %t then bugmes();quit;end;
block.model.opar = block.model.ipar;
block.model.ipar = 0;
scs_m.objs(5) = block;
scicos_simulate(scs_m);
 Le bloc est ignoré car ses entrées n'ont pas été définies.
if block.gui <> "scifunc_block_m" then bugmes();quit;end;
if block.model.ipar <> 0 then bugmes();quit;end;
